[
  {
    "_id": "1fd6d4da-325a-443a-9be6-b983b2689ecd",
    "colId": "history",
    "containerId": "",
    "name": "https://localhost:8000/api/article",
    "url": "http://localhost:8000/api/article/9",
    "method": "PUT",
    "sortNum": 0,
    "created": "2023-02-09T15:42:35.225Z",
    "modified": "2023-02-26T19:16:56.437Z",
    "headers": [],
    "params": [],
    "body": {
      "type": "json",
      "raw": "{\n  \"id\": 9,\n  \"titre\": \"Château\",\n  \"image\": \"https://www.parismanga.fr/wp-content/uploads/2022/02/Art-of-K-500x500-1.jpg\",\n  \"auteurBD\": \"K\",\n  \"auteurArticle\": \"Juliette Suc\",\n  \"date\": \"2023-03-01T00:00:00+00:00\",\n  \"texte\": \"Le château en Angleterre.\",\n  \"serieEnCours\": 0,\n  \"genre\": \"Test\",\n  \"vues\": 0\n}",
      "form": []
    },
    "tests": []
  },
  {
    "_id": "366b21b6-56dd-472d-b531-358927b7d526",
    "colId": "history",
    "containerId": "",
    "name": "hhttp://localhost:8000/api/categorie",
    "url": "http://localhost:8000/api/categorie/11",
    "method": "GET",
    "sortNum": 0,
    "created": "2023-02-13T13:49:15.366Z",
    "modified": "2023-02-13T14:26:46.235Z",
    "headers": [],
    "params": [],
    "body": {
      "type": "json",
      "raw": "{\n  \"id\": 11,\n  \"nom\": \"Mystère\"\n}",
      "form": []
    },
    "tests": []
  },
  {
    "_id": "ae77d75e-2ebe-4d29-9cf8-e318fb0190b5",
    "colId": "history",
    "containerId": "",
    "name": "http://localhost:8000/api/categorie",
    "url": "http://localhost:8000/api/commentaire",
    "method": "GET",
    "sortNum": 0,
    "created": "2023-02-13T13:49:20.359Z",
    "modified": "2023-02-13T15:02:33.395Z",
    "headers": [],
    "params": [],
    "body": {
      "type": "json",
      "raw": "{\n    \"auteur\": \"Ari\",\n    \"texteCom\": \"C'est vraiment une excellente histoire ! Je la recommande !\",\n    \"date\": \"2023-02-23T00:00:00+00:00\",\n    \"article\" : {\n      \"id\": 4,\n      \"titre\": \"Gourmet Hound\",\n      \"image\": \"https://swebtoon-phinf.pstatic.net/20171025_252/1508878599647EKo88_JPEG/thumbnail.jpg\",\n      \"auteurBD\": \" Leehama\",\n      \"auteurArticle\": \"Juliette Suc\",\n      \"date\": \"2023-02-13T00:00:00+00:00\",\n      \"texte\": \"Lucy, a woman with an uncanny sense of taste and smell, discovers that her favorite restaurant has changed kitchen staff--and she does not know the identity of the chef whose cooking she's loved for years. When a lucky accident leads her to two former chefs at Dimanche, she decides that she will do her utmost to track down each of their old colleagues in order to rediscover that perfect taste.\",\n      \"serieEnCours\": false,\n      \"vues\": 0\n    }\n  }",
      "form": []
    },
    "tests": []
  },
  {
    "_id": "826e3922-69e3-4652-8c29-2817d5415975",
    "colId": "history",
    "containerId": "",
    "name": "http://localhost:8000/api/categorie",
    "url": "http://localhost:8000/api/categorie",
    "method": "POST",
    "sortNum": 0,
    "created": "2023-02-13T13:49:45.376Z",
    "modified": "2023-02-13T13:49:45.376Z",
    "headers": [],
    "params": [],
    "body": {
      "type": "json",
      "raw": "{\n    \"nom\": \"Thriller\"\n  }",
      "form": []
    },
    "tests": []
  }
]